<?xml version="1.0" encoding="UTF-8"?>
<svg width="120px" height="120px" viewBox="0 0 120 120" version="1.1" xmlns="http://www.w3.org/2000/svg" xmlns:xlink="http://www.w3.org/1999/xlink">
    <!-- Generator: Sketch 53.2 (72643) - https://sketchapp.com -->
    <title>btn_config_pushed</title>
    <desc>Created with Sketch.</desc>
    <g id="spec" stroke="none" stroke-width="1" fill="none" fill-rule="evenodd">
        <g id="Artboard" transform="translate(-1136.000000, -1216.000000)">
            <g id="btn_config_pushed" transform="translate(1136.000000, 1216.000000)">
                <rect id="Rectangle-Copy-111" fill="#000000" x="0" y="0" width="120" height="120" rx="6"></rect>
                <g id="Group-19-Copy-4" transform="translate(21.000000, 23.000000)" fill="#FFFFFF">
                    <path d="M49.8693333,29.8037333 C49.7509333,30.016 49.6272,30.2250667 49.5002667,30.4298667 C49.3946667,30.6016 49.2869333,30.7712 49.1749333,30.9386667 C49.0437333,31.1349333 48.9072,31.3258667 48.7674667,31.5146667 C48.6448,31.6810667 48.5189333,31.8485333 48.3888,32.0106667 C48.248,32.1877333 48.1018667,32.3584 47.9546667,32.528 C47.8128,32.6912 47.6698667,32.8522667 47.5205333,33.0101333 C47.3722667,33.168 47.2176,33.3205333 47.0629333,33.472 C46.9029333,33.6277333 46.7408,33.7834667 46.5733333,33.9338667 C46.4165333,34.0736 46.2565333,34.2090667 46.0944,34.3424 C45.9162667,34.4906667 45.736,34.6357333 45.5493333,34.7776 C45.3861333,34.9002667 45.2208,35.0186667 45.0533333,35.136 C44.8570667,35.2725333 44.6586667,35.4058667 44.4549333,35.536 C40.9008,37.7888 36.5082667,38.6272 32.1957333,37.6138667 C30.6885333,37.2597333 29.2794667,36.688 27.9813333,35.9552 C27.7232,35.8090667 27.464,35.6629333 27.2165333,35.504 C27.0618667,35.4048 26.9146667,35.296 26.7642667,35.1925333 C26.5562667,35.0485333 26.3461333,34.9077333 26.1466667,34.7552 C25.9728,34.6229333 25.8074667,34.4810667 25.64,34.3413333 C25.4746667,34.2048 25.3072,34.0704 25.1472,33.9274667 C24.9712,33.7685333 24.8026667,33.6 24.6341333,33.4336 C24.4944,33.2970667 24.3525333,33.1637333 24.2192,33.0229333 C24.0538667,32.8469333 23.8970667,32.6634667 23.7392,32.48 C23.6133333,32.3349333 23.4842667,32.1909333 23.3637333,32.0416 C23.2186667,31.8602667 23.0842667,31.6714667 22.9466667,31.4848 C22.8261333,31.3205333 22.7024,31.1594667 22.5893333,30.9909333 C22.4677333,30.8117333 22.3568,30.6261333 22.2416,30.4416 C22.1264,30.2549333 22.0090667,30.0704 21.9013333,29.8805333 C21.8032,29.7056 21.7146667,29.5264 21.6229333,29.3482667 C21.5141333,29.1392 21.4042667,28.9312 21.3061333,28.7168 C21.2272,28.5461333 21.1578667,28.3701333 21.0842667,28.1952 C20.9904,27.9701333 20.8933333,27.7450667 20.8090667,27.5157333 C20.7429333,27.3354667 20.6874667,27.1509333 20.6277333,26.9685333 C20.5541333,26.7402667 20.4762667,26.5130667 20.4122667,26.2816 C20.3568,26.0768 20.312,25.8688 20.2629333,25.6618667 C20.2128,25.4485333 20.1584,25.2352 20.1168,25.0186667 C20.0698667,24.7744 20.0368,24.5258667 20.0016,24.2784 C19.9749333,24.0938667 19.9429333,23.9125333 19.9226667,23.7269333 C19.8917333,23.4368 19.8768,23.1424 19.8608,22.848 C19.8533333,22.6997333 19.8373333,22.5525333 19.8341333,22.4021333 C19.8266667,22.1077333 19.8373333,21.8176 19.8458667,21.5253333 C19.8501333,21.3685333 19.8469333,21.2117333 19.8565333,21.0538667 C19.8693333,20.8298667 19.8992,20.6090667 19.9216,20.3872 C19.9450667,20.16 19.96,19.9338667 19.9930667,19.7066667 C20.0154667,19.5562667 20.0485333,19.4090667 20.0752,19.2597333 C20.1253333,18.9664 20.1754667,18.672 20.2437333,18.3797333 C20.2746667,18.2410667 20.3173333,18.1066667 20.3536,17.9701333 C20.4293333,17.6768 20.5061333,17.3845333 20.5968,17.0997333 C20.6512,16.9290667 20.7173333,16.7626667 20.7781333,16.5952 C20.8645333,16.3530667 20.9488,16.1098667 21.0469333,15.8741333 C21.1290667,15.6746667 21.2229333,15.4826667 21.3125333,15.2874667 C21.4032,15.0901333 21.4917333,14.8896 21.5909333,14.6965333 C21.6976,14.4864 21.8170667,14.2837333 21.9333333,14.0789333 C22.0304,13.9082667 22.1242667,13.7344 22.2277333,13.568 C22.3536,13.3632 22.4912,13.1658667 22.6266667,12.9674667 C22.7354667,12.8074667 22.8410667,12.6453333 22.9562667,12.4906667 C23.0928,12.304 23.2410667,12.1248 23.3861333,11.9445333 C23.5141333,11.7856 23.6389333,11.6256 23.7722667,11.472 C23.9141333,11.3088 24.0656,11.1541333 24.2138667,10.9962667 C24.3642667,10.8362667 24.5125333,10.6752 24.6693333,10.5216 C24.8133333,10.3818667 24.9648,10.2496 25.1130667,10.1152 C25.2869333,9.9584 25.4586667,9.79946667 25.64,9.64906667 C25.7861333,9.52746667 25.9408,9.4144 26.0922667,9.29813333 C26.2853333,9.14986667 26.4752,9.00053333 26.6746667,8.8608 C26.8314667,8.75093333 26.9968,8.64853333 27.1578667,8.544 C27.3594667,8.41386667 27.5589333,8.2816 27.7669333,8.16 C27.9493333,8.05333333 28.1392,7.95733333 28.3269333,7.85706667 C28.5210667,7.7536 28.7130667,7.64693333 28.9104,7.55093333 C29.1365333,7.44213333 29.3690667,7.34613333 29.6005333,7.248 C29.7701333,7.17653333 29.9365333,7.09866667 30.1093333,7.03253333 C30.3834667,6.92693333 30.6672,6.83626667 30.9498667,6.74453333 C31.0885333,6.69973333 31.2250667,6.64853333 31.3658667,6.60693333 C31.6506667,6.52373333 31.9376,6.45866667 32.2234667,6.39253333 C32.3749333,6.35733333 32.5232,6.3136 32.6757333,6.28266667 C32.8986667,6.23786667 33.1216,6.20906667 33.3445333,6.17386667 C33.5674667,6.1376 33.7872,6.096 34.0133333,6.06933333 C34.168,6.0512 34.3216,6.04693333 34.4762667,6.03306667 C34.7696,6.00746667 35.0629333,5.9808 35.3594667,5.9712 C35.5034667,5.96586667 35.6474667,5.97333333 35.7914667,5.97226667 C36.0912,5.9712 36.3909333,5.96906667 36.6874667,5.984 C36.8688,5.9936 37.048,6.01493333 37.2282667,6.02986667 C37.4821333,6.05226667 37.736,6.0704 37.9877333,6.10453333 C38.2021333,6.13333333 38.4144,6.17493333 38.6277333,6.21226667 C38.8410667,6.2496 39.0544,6.28266667 39.2656,6.32853333 C39.4970667,6.37866667 39.7253333,6.4416 39.9546667,6.5024 C40.1434667,6.55253333 40.3333333,6.5984 40.52,6.65493333 C40.7514667,6.72533333 40.9786667,6.80746667 41.2058667,6.88853333 C41.3872,6.95253333 41.5696,7.01226667 41.7477333,7.08266667 C41.9653333,7.168 42.1786667,7.26613333 42.392,7.36106667 C42.5754667,7.4432 42.76,7.52106667 42.9402667,7.6096 C43.1365333,7.70666667 43.3274667,7.81333333 43.5194667,7.91786667 C43.7114667,8.02133333 43.9034667,8.12266667 44.0901333,8.23466667 C44.2629333,8.33706667 44.4293333,8.45013333 44.5978667,8.55893333 C44.7941333,8.68693333 44.9914667,8.8128 45.1824,8.94826667 C45.3381333,9.06026667 45.4885333,9.1808 45.64,9.29706667 C45.832,9.44426667 46.0250667,9.58933333 46.2096,9.74613333 C46.3578667,9.87093333 46.5008,10.0064 46.6458667,10.1376 C46.8208,10.2965333 46.9978667,10.4544 47.1653333,10.6208 C47.3178667,10.7722667 47.4629333,10.9344 47.6101333,11.0922667 C47.7573333,11.2512 47.9077333,11.4069333 48.0485333,11.5712 C48.2128,11.7621333 48.3653333,11.9637333 48.5210667,12.1642667 C48.6330667,12.3093333 48.7504,12.4490667 48.8581333,12.5973333 C49.0309333,12.8373333 49.192,13.0890667 49.3541333,13.3397333 C50.1584,14.5930667 50.808,15.9658667 51.2474667,17.4485333 C52.504,21.6949333 51.9162667,26.128 49.8693333,29.8037333 M57.4554667,17.8218667 C56.2501333,17.6096 55.0448,17.3973333 53.8394667,17.184 C53.5077333,15.9477333 53.0618667,14.7850667 52.4944,13.6576 C52.3365333,13.3354667 52.1648,13.0186667 51.9856,12.7061333 C51.9834667,12.7029333 51.9824,12.6997333 51.9802667,12.6965333 C52.6832,11.6938667 53.3850667,10.6922667 54.0869333,9.68853333 C53.2784,8.4928 52.3994667,7.41973333 51.4234667,6.44373333 C50.4474667,5.46773333 49.3744,4.58773333 48.1786667,3.78026667 C47.1749333,4.48213333 46.1722667,5.184 45.1696,5.88693333 C43.7434667,5.06346667 42.2725333,4.45333333 40.6821333,4.02773333 C40.4698667,2.8224 40.2576,1.61706667 40.0453333,0.411733333 C38.6277333,0.1376 37.2474667,0 35.8672,0 C34.4858667,0 33.1056,0.1376 31.6890667,0.411733333 C31.4757333,1.61706667 31.2634667,2.8224 31.0501333,4.02773333 C29.4608,4.45333333 27.9898667,5.06346667 26.5637333,5.88693333 C25.5610667,5.184 24.5584,4.48213333 23.5557333,3.78026667 C21.7616,4.992 20.2437333,6.3648 18.9146667,7.984 C18.472,8.52373333 18.0506667,9.0912 17.6464,9.68853333 C18.3482667,10.6922667 19.0501333,11.6938667 19.7530667,12.6965333 C18.9296,14.1226667 18.3205333,15.5936 17.8938667,17.184 C16.6885333,17.3973333 15.4832,17.6096 14.2778667,17.8218667 C13.7296,20.656 13.7296,23.3450667 14.2778667,26.1781333 C15.4832,26.3904 16.6885333,26.6037333 17.8938667,26.816 C18.3205333,28.4064 18.9296,29.8773333 19.7530667,31.3034667 L17.6464,34.3114667 C18.0506667,34.9098667 18.472,35.4762667 18.9146667,36.0170667 C19.3584,36.5568 19.8224,37.0688 20.3109333,37.5573333 C20.3568,37.6032 20.4090667,37.6426667 20.4549333,37.6885333 C21.3946667,38.6101333 22.4165333,39.4506667 23.5557333,40.2208 C24.5584,39.5178667 25.5610667,38.816 26.5637333,38.1141333 C26.8346667,38.2698667 27.1098667,38.4202667 27.3882667,38.5621333 C28.5594667,39.1573333 29.7648,39.6277333 31.0501333,39.9733333 C31.2634667,41.1786667 31.4757333,42.384 31.6890667,43.5893333 C34.5221333,44.1376 37.2112,44.1376 40.0453333,43.5893333 C40.2576,42.384 40.4698667,41.1786667 40.6821333,39.9733333 C41.9184,39.6416 43.0821333,39.1957333 44.2096,38.6282667 C44.5349333,38.4693333 44.8538667,38.2954667 45.1696,38.1141333 C45.4704,38.3242667 45.7712,38.5354667 46.072,38.7456 L48.1786667,40.2208 C49.9717333,39.008 51.4896,37.6362667 52.8186667,36.0170667 C53.2613333,35.4762667 53.6826667,34.9098667 54.0869333,34.3114667 L51.9802667,31.3034667 C51.9824,31.2992 51.9845333,31.296 51.9866667,31.2928 C52.1413333,31.0250667 52.2885333,30.7541333 52.4293333,30.4789333 C53.0234667,29.3077333 53.4949333,28.1013333 53.8394667,26.816 C55.0448,26.6037333 56.2501333,26.3904 57.4554667,26.1781333 C58.0037333,23.3450667 58.0037333,20.656 57.4554667,17.8218667 Z" id="Fill-322-Copy"></path>
                    <path d="M27.2424353,60.8999185 C27.1518715,61.0623014 27.0572282,61.2222364 26.9601373,61.3789073 C26.8793641,61.5102825 26.7969592,61.6400256 26.7112907,61.7681367 C26.6109362,61.9182797 26.5065023,62.0643428 26.3996206,62.2087738 C26.3057933,62.336069 26.2095182,62.4641801 26.1099796,62.5882113 C26.0022821,62.7236664 25.8905051,62.8542256 25.7779122,62.9839687 C25.6693988,63.1088159 25.5600695,63.232031 25.4458449,63.3527983 C25.3324361,63.4735655 25.2141321,63.5902527 25.095828,63.7061239 C24.9734444,63.8252591 24.8494291,63.9443943 24.7213343,64.0594496 C24.6013984,64.1663449 24.4790149,64.2699762 24.3549996,64.3719755 C24.2187459,64.4853988 24.0808604,64.596374 23.9380796,64.7049013 C23.8132484,64.7987407 23.6867854,64.8893161 23.5586907,64.9790755 C23.4085668,65.0835228 23.2568112,65.1855221 23.1009762,65.2850735 C20.3824298,67.008454 17.0225935,67.6498258 13.7239491,66.8746309 C12.5710961,66.6037207 11.493305,66.1663476 10.5003665,65.6057593 C10.3029211,65.4939681 10.1046598,65.3821768 9.91537321,65.2605936 C9.79706912,65.1847061 9.68447626,65.1014747 9.56943572,65.0223232 C9.41033712,64.9121639 9.24960673,64.8044526 9.09703525,64.6877654 C8.96404513,64.5865821 8.83758213,64.4780548 8.70948736,64.3711595 C8.58302436,64.2667122 8.45492959,64.1638969 8.33254604,64.0545536 C8.19792415,63.9329704 8.06901348,63.8040433 7.94010281,63.6767481 C7.83322119,63.5723008 7.72470778,63.4703015 7.62272149,63.3625902 C7.4962585,63.2279511 7.37632262,63.0876 7.25557086,62.9472489 C7.15929581,62.8362737 7.06057308,62.7261144 6.96837748,62.6118752 C6.8574164,62.4731561 6.75461422,62.328725 6.64936437,62.185926 C6.55716877,62.0602628 6.4625255,61.9370476 6.37604113,61.8081205 C6.28302963,61.6710334 6.19817704,61.5290503 6.11006089,61.3878833 C6.02194474,61.2450842 5.93219681,61.1039171 5.84979189,60.9586701 C5.77472998,60.824847 5.70701109,60.6877599 5.63684452,60.5514888 C5.55362371,60.3915539 5.46958701,60.2324349 5.39452511,60.06842 C5.33414922,59.9378609 5.28111636,59.8032218 5.22481993,59.6693986 C5.15302158,59.4972238 5.07877556,59.3250489 5.01432023,59.1496101 C4.96373503,59.011707 4.92130874,58.8705399 4.87561888,58.7310049 C4.81932245,58.556382 4.75976246,58.3825752 4.71080904,58.2055043 C4.66838275,58.0488334 4.63411535,57.8897144 4.5965844,57.7314115 C4.55823756,57.5682126 4.51662715,57.4050136 4.48480743,57.2393667 C4.44890826,57.052504 4.42361566,56.8623772 4.39669128,56.6730665 C4.37629402,56.5318994 4.35181731,56.3931803 4.3363154,56.2511973 C4.31265458,56.0292467 4.30123212,55.8040322 4.28899376,55.5788177 C4.28328253,55.4653945 4.27104418,55.3527872 4.2685965,55.237732 C4.26288527,55.0125175 4.27104418,54.7905669 4.2775713,54.5669844 C4.28083486,54.4470332 4.27838719,54.327082 4.2857302,54.2063148 C4.29552088,54.034956 4.31836581,53.8660451 4.33549951,53.6963182 C4.35344909,53.5225113 4.36487156,53.3495205 4.39016416,53.1757136 C4.40729785,53.0606584 4.43259045,52.9480511 4.45298771,52.8338119 C4.49133455,52.6094134 4.5296814,52.3841989 4.58189838,52.1606164 C4.60555919,52.0545371 4.63819481,51.9517217 4.66593508,51.8472744 C4.72386329,51.6228759 4.78260739,51.3992934 4.85195806,51.1814228 C4.89356847,51.0508637 4.94415367,50.9235686 4.99065941,50.7954574 C5.05674653,50.6102266 5.12120186,50.4241799 5.19626377,50.2438451 C5.25908732,50.0912541 5.33088566,49.944375 5.39942045,49.795048 C5.46877112,49.644089 5.53649002,49.490682 5.61236781,49.342987 C5.69395684,49.1822361 5.78533656,49.0271971 5.8742686,48.8705261 C5.94851461,48.739967 6.02031296,48.6069599 6.09945432,48.4796647 C6.19572937,48.3229938 6.30097922,48.1720348 6.40459729,48.0202598 C6.4878181,47.8978606 6.56859123,47.7738294 6.65670739,47.6555102 C6.76114134,47.5127111 6.87455009,47.375624 6.98551117,47.237721 C7.08341801,47.1161378 7.17887717,46.9937386 7.28086346,46.8762354 C7.38937687,46.7513882 7.50523329,46.633069 7.61864204,46.5123018 C7.73368257,46.3899026 7.84709132,46.2666874 7.96702719,46.1491842 C8.07717238,46.0422889 8.1930288,45.9411055 8.30643755,45.8382902 C8.43942767,45.718339 8.57078601,45.5967558 8.70948736,45.4817006 C8.82126433,45.3886772 8.93956842,45.3021818 9.05542484,45.2132384 C9.20310098,45.0998151 9.34832946,44.9855759 9.50090094,44.8786806 C9.62083681,44.7946331 9.74729981,44.7162977 9.87049924,44.6363302 C10.0247025,44.5367788 10.177274,44.4355955 10.3363726,44.3425721 C10.4758898,44.2609727 10.6211183,44.1875332 10.764715,44.1108297 C10.913207,44.0316782 11.0600673,43.9500787 11.211007,43.8766392 C11.3839757,43.7934078 11.5618398,43.7199683 11.738888,43.6448968 C11.8686146,43.5902251 11.9958934,43.5306575 12.1280677,43.4800658 C12.3377515,43.3992824 12.5547783,43.3299228 12.7709892,43.2597473 C12.877055,43.2254755 12.9814889,43.1863078 13.0891864,43.154484 C13.3070291,43.0908364 13.5265036,43.0410607 13.7451622,42.9904691 C13.8610187,42.9635413 13.9744274,42.9300855 14.0910997,42.9064216 C14.2616208,42.8721499 14.4321419,42.850118 14.6026629,42.8231902 C14.773184,42.7954464 14.9412574,42.7636226 15.1142261,42.7432227 C15.2325302,42.7293508 15.3500184,42.7260868 15.4683225,42.7154789 C15.6926924,42.695895 15.9170622,42.6754952 16.1438797,42.6681512 C16.2540249,42.6640712 16.3641701,42.6697832 16.4743153,42.6689672 C16.7035804,42.6681512 16.9328456,42.6665192 17.1596631,42.6779432 C17.2983645,42.6852871 17.435434,42.701607 17.5733195,42.7130309 C17.7675014,42.7301668 17.9616833,42.7440387 18.1542334,42.7701505 C18.3182273,42.7921824 18.4805895,42.8240062 18.6437675,42.852566 C18.8069456,42.8811258 18.9701237,42.9064216 19.1316699,42.9415094 C19.3087181,42.9798612 19.4833186,43.0280048 19.6587351,43.0745165 C19.8031476,43.1128683 19.9483761,43.147956 20.0911569,43.1912038 C20.2682051,43.2450594 20.4419897,43.307891 20.6157744,43.3699066 C20.7544757,43.4188662 20.893993,43.4645619 21.0302466,43.5184176 C21.1966883,43.5836972 21.3598663,43.6587687 21.5230444,43.7313922 C21.6633775,43.7942238 21.8045265,43.8537914 21.942412,43.9215189 C22.0925358,43.9957744 22.2385802,44.0773739 22.3854404,44.1573414 C22.5323007,44.2364928 22.6791609,44.3140123 22.8219417,44.3996918 C22.9541159,44.4780272 23.0813948,44.5645227 23.2103055,44.6477541 C23.3604293,44.7456735 23.511369,44.8419608 23.6574134,44.9455921 C23.7765334,45.0312716 23.8915739,45.123479 24.0074303,45.2124224 C24.1542906,45.3250296 24.3019667,45.4360049 24.4431157,45.5559561 C24.5565245,45.6514275 24.6658538,45.7550588 24.7768149,45.8554261 C24.9106209,45.9770093 25.0460587,46.0977765 25.1741534,46.2250717 C25.2908257,46.3409429 25.4017868,46.4649741 25.5143797,46.5857413 C25.6269725,46.7073245 25.7420131,46.8264597 25.8497106,46.9521229 C25.9753577,47.0981859 26.09203,47.2524089 26.21115,47.4058158 C26.2968185,47.5167911 26.3865664,47.6236864 26.4689713,47.7371097 C26.6011455,47.9207084 26.724345,48.1132832 26.8483603,48.3050419 C27.4635416,49.2638355 27.9604188,50.3140206 28.2965656,51.4482531 C29.2576843,54.6967276 28.8081288,58.0880011 27.2424353,60.8999185 M32.7576436,58.0730254 C33.1696743,55.9439587 33.1696743,53.9231088 32.7576436,51.7932405 C31.8518174,51.6337208 30.9459911,51.4742011 30.0401648,51.3138798 C29.7908622,50.384818 29.4557867,49.5110669 29.0293269,48.6637689 L29.0325333,48.6637689 C28.9106877,48.4216838 28.7816275,48.1836067 28.646956,47.948736 C28.6453527,47.9463312 28.6445511,47.9439263 28.6429479,47.9415215 C29.1712129,47.1880115 29.6986764,46.435303 30.2261398,45.6809913 C29.6185147,44.7823905 28.957983,43.9759744 28.2245042,43.2425045 C27.4910255,42.5090346 26.6845996,41.8477093 25.7859879,41.2408932 C25.0316671,41.7683503 24.2781479,42.2958073 23.5246287,42.824066 C22.4528679,42.2052258 21.3474392,41.7467069 20.1522295,41.4268659 C19.9927079,40.5210507 19.8331863,39.6152354 19.6736646,38.7094201 C18.6083168,38.5034072 17.5710255,38.4 16.5337341,38.4 C15.4956412,38.4 14.4583499,38.5034072 13.3938036,38.7094201 C13.2334804,39.6152354 13.0739588,40.5210507 12.9136356,41.4268659 C11.7192275,41.7467069 10.6137988,42.2052258 9.54203798,42.824066 C8.78851879,42.2958073 8.0349996,41.7683503 7.2814804,41.2408932 C5.93316202,42.1515182 4.79246222,43.1831857 3.79364848,44.4000242 C3.46097778,44.8056371 3.14433939,45.2320917 2.84052687,45.6809913 C3.3679903,46.435303 3.89545374,47.1880115 4.42371879,47.9415215 C3.80487111,49.0132693 3.34714828,50.1186846 3.02650182,51.3138798 C2.12067556,51.4742011 1.21484929,51.6337208 0.30902303,51.7932405 C-0.103007677,53.9231088 -0.103007677,55.9439587 0.30902303,58.0730254 C1.21484929,58.2325451 2.12067556,58.3928663 3.02650182,58.552386 C3.34714828,59.7475812 3.80487111,60.8529965 4.42371879,61.9247443 L2.84052687,64.1852745 C3.14433939,64.6349757 3.46097778,65.0606288 3.79364848,65.4670432 C4.12712081,65.8726561 4.47582384,66.2574272 4.84296404,66.6245629 C4.87743354,66.659032 4.91671273,66.6886915 4.95118222,66.7231605 C5.65740606,67.4157485 6.42535434,68.0474144 7.2814804,68.6261742 C8.0349996,68.0979156 8.78851879,67.5704585 9.54203798,67.0430015 C9.74564848,67.160036 9.95246545,67.2730625 10.1616873,67.3796762 C10.1616873,67.3788746 10.1624889,67.3772714 10.1632905,67.3756682 C11.0418618,67.8269726 11.9476881,68.180481 12.9136356,68.4402015 C13.0739588,69.3460168 13.2334804,70.2518321 13.3938036,71.1576474 C15.5228962,71.5696731 17.5437705,71.5696731 19.6736646,71.1576474 C19.8331863,70.2518321 19.9927079,69.3460168 20.1522295,68.4402015 C21.0813026,68.1909019 21.9558659,67.8558304 22.8031741,67.4293758 L22.8031741,67.4317806 C23.0476671,67.3099364 23.2873503,67.1792746 23.5246287,67.0430015 C23.7506844,67.200918 23.9767402,67.359636 24.202796,67.5175525 L25.7859879,68.6261742 C27.1335046,67.7147477 28.2742044,66.6838818 29.2730182,65.4670432 C29.6056889,65.0606288 29.9223273,64.6349757 30.2261398,64.1852745 L28.6429479,61.9247443 C28.6445511,61.9215379 28.6461543,61.9191331 28.6477576,61.9167283 C28.7639919,61.7155251 28.8746149,61.511917 28.9804283,61.3051026 C28.9788251,61.304301 28.9772218,61.304301 28.9756186,61.3034994 C29.4269285,60.4249387 29.7812428,59.5183218 30.0401648,58.552386 C30.9459911,58.3928663 31.8518174,58.2325451 32.7576436,58.0730254" id="Fill-322-Copy-2"></path>
                    <path d="M74.5143697,45.2028348 C74.4434936,45.3299171 74.369425,45.4550835 74.2934408,45.5776956 C74.230227,45.6805109 74.1657362,45.782049 74.0986913,45.8823099 C74.020153,45.9998131 73.9384221,46.1141233 73.8547756,46.2271563 C73.7813455,46.3267786 73.7059998,46.4270395 73.6281,46.5241074 C73.543815,46.6301157 73.4563373,46.7322925 73.3682212,46.8338306 C73.2832976,46.9315371 73.1977356,47.0279663 73.1083424,47.1224798 C73.0195877,47.2169933 72.9270019,47.3083137 72.8344161,47.3989955 C72.7386377,47.4922318 72.6415822,47.585468 72.5413341,47.6755113 C72.4474712,47.7591684 72.3516928,47.8402712 72.2546374,47.9200968 C72.148004,48.0088628 72.0400937,48.095713 71.9283522,48.1806474 C71.8306582,48.2540869 71.7316871,48.324972 71.6314391,48.3952185 C71.5139509,48.4769599 71.3951856,48.5567854 71.2732278,48.6346952 C69.1456697,49.9834278 66.5162326,50.4853709 63.9346848,49.8786967 C63.032452,49.66668 62.1889634,49.324388 61.4118811,48.8856667 C61.2573585,48.7981779 61.1021975,48.7106891 60.9540602,48.615537 C60.8614744,48.5561468 60.7733582,48.4910092 60.6833265,48.4290645 C60.5588146,48.3428529 60.4330256,48.2585571 60.3136218,48.1672367 C60.2095426,48.0880497 60.1105715,48.0031154 60.0103234,47.9194582 C59.9113524,47.8377168 59.8111043,47.7572526 59.7153259,47.6716796 C59.6099696,47.5765276 59.509083,47.4756281 59.4081964,47.3760058 C59.3245499,47.2942644 59.2396264,47.2144388 59.159811,47.130143 C59.06084,47.0247733 58.9669771,46.9149333 58.8724757,46.8050934 C58.7971301,46.7182432 58.7198688,46.6320316 58.6477157,46.5426269 C58.5608766,46.4340642 58.4804227,46.3210312 58.3980533,46.2092754 C58.3259002,46.1109303 58.2518315,46.014501 58.1841481,45.9136015 C58.1113565,45.806316 58.0449501,45.6951988 57.9759897,45.5847202 C57.9070292,45.4729645 57.8367917,45.3624859 57.7723009,45.2488143 C57.7135568,45.1440832 57.6605594,45.0367976 57.6056464,44.9301507 C57.5405171,44.8049842 57.4747493,44.6804563 57.4160052,44.5520968 C57.3687545,44.4499201 57.3272505,44.3445504 57.2831924,44.2398192 C57.2270024,44.1050737 57.1688968,43.9703281 57.1184535,43.8330282 C57.0788651,43.725104 57.0456619,43.6146255 57.0099046,43.5054241 C56.9658466,43.3687627 56.9192344,43.23274 56.880923,43.0941628 C56.8477198,42.9715508 56.8209019,42.8470229 56.7915298,42.7231336 C56.7615192,42.5954127 56.7289546,42.4676918 56.7040522,42.3380551 C56.6759572,42.1918147 56.656163,42.0430199 56.6350917,41.8948636 C56.6191287,41.7843851 56.599973,41.6758223 56.587841,41.5647051 C56.5693239,41.3910047 56.5603846,41.2147499 56.5508067,41.038495 C56.5463371,40.949729 56.5367592,40.8616016 56.5348436,40.7715584 C56.530374,40.5953035 56.5367592,40.4216031 56.5418674,40.2466255 C56.5444215,40.1527506 56.5425059,40.0588758 56.5482526,39.9643623 C56.5559149,39.8302554 56.5737935,39.6980643 56.5872025,39.5652345 C56.60125,39.4292118 56.6101893,39.2938276 56.6299835,39.1578049 C56.6433925,39.0677616 56.6631867,38.9796342 56.6791498,38.8902296 C56.7091604,38.7146134 56.7391709,38.5383585 56.7800364,38.3633809 C56.7985536,38.2803623 56.8240945,38.1998982 56.8458043,38.1181568 C56.8911394,37.9425406 56.937113,37.767563 56.9913875,37.5970556 C57.0239521,37.4948788 57.0635405,37.3952565 57.0999364,37.2949956 C57.1516567,37.1500324 57.2021,37.0044306 57.2608441,36.863299 C57.3100104,36.74388 57.3662004,36.6289312 57.4198363,36.5120666 C57.4741107,36.3939247 57.5271081,36.2738671 57.5864908,36.1582797 C57.650343,36.0324746 57.7218576,35.9111398 57.7914566,35.7885277 C57.8495622,35.686351 57.9057522,35.5822585 57.9676889,35.4826362 C58.0430346,35.3600241 58.125404,35.2418823 58.2064964,35.1231019 C58.2716258,35.0273112 58.3348395,34.9302433 58.4038,34.8376457 C58.4855309,34.7258899 58.5742856,34.6186043 58.6611247,34.5106802 C58.7377474,34.4155281 58.8124546,34.3197374 58.89227,34.2277784 C58.9771935,34.1300719 59.0678637,34.0374743 59.1566184,33.9429608 C59.2466501,33.8471701 59.3354048,33.7507409 59.4292677,33.6587818 C59.5154682,33.5751246 59.6061385,33.4959377 59.6948932,33.4154735 C59.7989724,33.3215987 59.9017746,33.2264466 60.0103234,33.1364034 C60.0978011,33.0636024 60.1903869,32.9959104 60.2810571,32.9263025 C60.3966298,32.8375365 60.5102868,32.7481318 60.6296906,32.6644747 C60.7235534,32.5986984 60.8225245,32.5373924 60.9189414,32.4748091 C61.0396223,32.3968994 61.159026,32.3177124 61.283538,32.2449115 C61.3927254,32.1810511 61.5063824,32.1235767 61.6187625,32.0635479 C61.7349736,32.0016032 61.8499077,31.9377428 61.9680345,31.8802684 C62.1034013,31.8151307 62.2425993,31.7576563 62.3811587,31.6989047 C62.4826839,31.6561182 62.5822934,31.6095001 62.6857341,31.5699066 C62.8498345,31.5066848 63.0196816,31.4524034 63.1888901,31.3974834 C63.2718981,31.370662 63.353629,31.340009 63.437914,31.3151034 C63.6083996,31.2652923 63.7801623,31.2263374 63.9512864,31.1867439 C64.0419566,31.16567 64.1307113,31.1394872 64.2220201,31.1209677 C64.3554713,31.0941463 64.4889226,31.076904 64.6223739,31.05583 C64.7558252,31.0341175 64.8873609,31.0092119 65.0227277,30.9932468 C65.1153135,30.9823905 65.2072608,30.9798361 65.2998466,30.9715342 C65.4754404,30.9562077 65.6510342,30.9402426 65.8285435,30.9344952 C65.9147441,30.9313021 66.0009447,30.9357724 66.0871453,30.9351338 C66.2665702,30.9344952 66.4459951,30.9332179 66.6235045,30.9421584 C66.7320533,30.9479058 66.8393252,30.9606779 66.9472355,30.9696184 C67.099204,30.9830291 67.2511724,30.9938854 67.4018638,31.0143207 C67.5302069,31.031563 67.6572729,31.0564686 67.7849775,31.0788198 C67.9126821,31.1011709 68.0403866,31.1209677 68.1668142,31.1484277 C68.3053736,31.1784421 68.4420175,31.2161197 68.5792999,31.2525202 C68.6923184,31.2825346 68.8059755,31.3099946 68.917717,31.3438406 C69.0562765,31.3859885 69.1922818,31.4351611 69.3282872,31.483695 C69.4368361,31.5220113 69.5460235,31.5577731 69.6526568,31.599921 C69.7829155,31.6510094 69.91062,31.709761 70.0383246,31.7665968 C70.1481505,31.8157693 70.258615,31.8623874 70.3665253,31.9153916 C70.4840135,31.9735046 70.5983091,32.0373651 70.7132432,32.0999483 C70.8281773,32.1618929 70.9431114,32.2225604 71.0548529,32.2896138 C71.1582936,32.3509199 71.2579032,32.4186119 71.3587898,32.4837496 C71.476278,32.5603821 71.5944047,32.6357375 71.7087003,32.7168402 C71.8019247,32.7838937 71.8919564,32.856056 71.9826266,32.9256639 C72.0975607,33.0137913 72.2131334,33.1006415 72.3235978,33.1945164 C72.4123525,33.2692331 72.4979146,33.3503359 72.5847537,33.4288842 C72.6894714,33.5240363 72.7954662,33.6185497 72.8957143,33.718172 C72.987023,33.8088539 73.0738621,33.9059217 73.1619783,34.0004352 C73.2500945,34.0955873 73.3401262,34.1888235 73.4244112,34.2871686 C73.5227437,34.4014788 73.6140525,34.5221751 73.7072768,34.6422327 C73.7743217,34.7290829 73.8445592,34.8127401 73.90905,34.9015061 C74.0124907,35.0451921 74.1089077,35.1959028 74.2059631,35.3459748 C74.6874094,36.0963351 75.0762698,36.918219 75.3393412,37.8058792 C76.0915211,40.3481636 75.739695,43.0022038 74.5143697,45.2028348 M78.6940897,42.9640627 C79.0130812,41.3157529 79.0130812,39.751224 78.6940897,38.1022937 C77.9928048,37.9787946 77.29152,37.8552955 76.5902352,37.7311758 C76.3972267,37.0119021 76.1378133,36.3354497 75.8076509,35.679477 L75.8101333,35.679477 C75.7158012,35.4920563 75.6158836,35.3077385 75.5116218,35.1259031 C75.5103806,35.1240413 75.50976,35.1221795 75.5085188,35.1203177 C75.9174982,34.5369551 76.325857,33.9542131 76.7342158,33.3702299 C76.2637964,32.6745389 75.752417,32.0502168 75.1845624,31.4823691 C74.6167079,30.9145214 73.9923782,30.4025276 73.2966788,29.9327346 C72.7126885,30.3410884 72.1293188,30.7494422 71.5459491,31.1584167 C70.7161988,30.6793146 69.860383,30.3243322 68.9350594,30.0767134 C68.8115588,29.3754371 68.6880582,28.6741607 68.5645576,27.9728844 C67.7397721,27.8133905 66.9367079,27.7333333 66.1336436,27.7333333 C65.3299588,27.7333333 64.5268945,27.8133905 63.7027297,27.9728844 C63.5786085,28.6741607 63.4551079,29.3754371 63.3309867,30.0767134 C62.4062836,30.3243322 61.5504679,30.6793146 60.7207176,31.1584167 C60.1373479,30.7494422 59.5539782,30.3410884 58.9706085,29.9327346 C57.9267491,30.6377345 57.0436267,31.4364448 56.2703515,32.3785134 C56.0128,32.6925363 55.7676606,33.0226947 55.5324509,33.3702299 C55.9408097,33.9542131 56.3491685,34.5369551 56.7581479,35.1203177 C56.27904,35.950058 55.9246739,36.8058634 55.6764315,37.7311758 C54.9751467,37.8552955 54.2738618,37.9787946 53.572577,38.1022937 C53.2535855,39.751224 53.2535855,41.3157529 53.572577,42.9640627 C54.2738618,43.0875618 54.9751467,43.2116815 55.6764315,43.3351806 C55.9246739,44.260493 56.27904,45.1162984 56.7581479,45.9460386 L55.5324509,47.6961265 C55.7676606,48.0442823 56.0128,48.3738201 56.2703515,48.6884636 C56.5285236,49.0024864 56.7984873,49.3003737 57.0827248,49.5846079 C57.1094109,49.6112936 57.1398206,49.6342557 57.1665067,49.6609415 C57.7132606,50.1971386 58.3078012,50.6861703 58.9706085,51.1342424 C59.5539782,50.725268 60.1373479,50.3169141 60.7207176,49.9085603 C60.8783515,49.9991677 61.0384679,50.0866721 61.2004461,50.1692117 C61.2004461,50.1685911 61.2010667,50.1673499 61.2016873,50.1661087 C61.8818715,50.5155057 62.5831564,50.7891896 63.3309867,50.9902636 C63.4551079,51.6915399 63.5786085,52.3928162 63.7027297,53.0940926 C65.3510594,53.4130802 66.9156073,53.4130802 68.5645576,53.0940926 C68.6880582,52.3928162 68.8115588,51.6915399 68.9350594,50.9902636 C69.6543418,50.7972574 70.331423,50.5378472 70.9874036,50.2076888 L70.9874036,50.2095506 C71.1766885,50.1152196 71.3622497,50.0140621 71.5459491,49.9085603 C71.72096,50.0308182 71.8959709,50.1536967 72.0709818,50.2759546 L73.2966788,51.1342424 C74.3399176,50.4286219 75.22304,49.6305322 75.9963152,48.6884636 C76.2538667,48.3738201 76.4990061,48.0442823 76.7342158,47.6961265 L75.5085188,45.9460386 C75.50976,45.9435562 75.5110012,45.9416944 75.5122424,45.9398326 C75.6022303,45.7840624 75.6878739,45.6264304 75.7697939,45.466316 C75.7685527,45.4656954 75.7673115,45.4656954 75.7660703,45.4650748 C76.1154715,44.7848988 76.3897794,44.0830018 76.5902352,43.3351806 C77.29152,43.2116815 77.9928048,43.0875618 78.6940897,42.9640627" id="Fill-322-Copy-3"></path>
                </g>
            </g>
        </g>
    </g>
</svg>