<?xml version="1.0" encoding="UTF-8"?>
<svg width="48px" height="48px" viewBox="0 0 48 48" version="1.1" xmlns="http://www.w3.org/2000/svg" xmlns:xlink="http://www.w3.org/1999/xlink">
    <!-- Generator: Sketch 53.2 (72643) - https://sketchapp.com -->
    <title>btn_touchlock_default</title>
    <desc>Created with Sketch.</desc>
    <g id="spec" stroke="none" stroke-width="1" fill="none" fill-rule="evenodd">
        <g id="Artboard" transform="translate(-709.000000, -72.000000)" fill="#000000" fill-rule="nonzero">
            <g id="btn_touchlock_default" transform="translate(709.000000, 72.000000)">
                <rect id="Rectangle-Copy-49" opacity="0.1" x="0" y="0" width="48" height="48" rx="2"></rect>
                <g id="Group-18-Copy-12" transform="translate(8.000000, 7.000000)">
                    <polygon id="Path_1012" points="10.3059855 0 6.1830502 4.12293525 2.06146762 0 0 2.06146762 4.12293525 6.1830502 0 10.3059855 2.06146762 12.3674531 6.1830502 8.25128117 10.3059855 12.3674531 12.3674531 10.3059855 8.25128117 6.1830502 12.3674531 2.06146762"></polygon>
                    <polygon id="Path_1013" points="19.1912285 4 14.7598847 4 14.7598847 25.437099 11.8746417 21.5143588 6 21.5143588 14.7598847 33.1608393 32.2810069 33.1608393 32.2810069 17.0884257 19.1912285 17.0884257"></polygon>
                </g>
            </g>
        </g>
    </g>
</svg>